Exploring the Social World - Quantitative Block: Statistics - 1 Lab: Introduction to R for Statistics
…
We might want to compare different actors and see the mean and standard deviation of the number of people wound, by each group’s attack, across time. To do this, we are still going to use the summarize, but we will precede that with group_by(group) to tell the subsequent dplyr functions to perform the actions separately for each breed.

attacks %>%
  group_by( group) %>%
  summarise( Mean = mean(attacks$nrWound), 
             Std.Dev = sd(attacks$nrWound))

# A tibble: 38 × 3
   group                                               Mean Std.Dev
   <chr>                                              <dbl>   <dbl>
 1 Abu Hafs al-Masri Brigades                         0.963    7.22
 2 Abu Nidal Organization (ANO)                       0.963    7.22
 3 Anarchists                                         0.963    7.22
 4 Animal Liberation Front (ALF)                      0.963    7.22
 5 Animal Rights Activists                            0.963    7.22
 6 Armenian Secret Army for the Liberation of Armenia 0.963    7.22
 7 Black September                                    0.963    7.22
 8 Continuity Irish Republican Army (CIRA)            0.963    7.22
 9 Dissident Republicans                              0.963    7.22
10 Informal Anarchist Federation                      0.963    7.22
# ℹ 28 more rows
…
